{
    "LIST_OF_ACTIVITY" : ["ARCHITECTURE", "DESIGN", "PROJECT MANAGEMENT", "RESOURCE MANAGEMENT", "DEVELOPMENT", "UNIT TESTING", "TESTING", "MEETING", "TRAINING"],
    "LIST_OF_CONSENT":	["YES", "YAA", "NO", "NOPE", "OK"],
    "LIST_OF_ADDCMD":	["book", "charge", "add"]
}

